{
  "indexes": [
    {
      "collectionGroup": "empresas",
      "queryScope": "COLLECTION",
      "fields": [
        {
          "fieldPath": "instancias",
          "arrayConfig": "CONTAINS"
        },
        {
          "fieldPath": "razonSocial",
          "order": "ASCENDING"
        }
      ]
    },
    {
      "collectionGroup": "instancias",
      "queryScope": "COLLECTION",
      "fields": [
        {
          "fieldPath": "instancias",
          "arrayConfig": "CONTAINS"
        },
        {
          "fieldPath": "nombre",
          "order": "ASCENDING"
        }
      ]
    },
    {
      "collectionGroup": "personas",
      "queryScope": "COLLECTION",
      "fields": [
        {
          "fieldPath": "instancias",
          "arrayConfig": "CONTAINS"
        },
        {
          "fieldPath": "nombreCompleto",
          "order": "ASCENDING"
        }
      ]
    },
    {
      "collectionGroup": "personas",
      "queryScope": "COLLECTION",
      "fields": [
        {
          "fieldPath": "empresaId",
          "order": "ASCENDING"
        },
        {
          "fieldPath": "nombre",
          "order": "ASCENDING"
        }
      ]
    },
    {
      "collectionGroup": "personas",
      "queryScope": "COLLECTION",
      "fields": [
        {
          "fieldPath": "empresaId",
          "order": "ASCENDING"
        },
        {
          "fieldPath": "nombreCompleto",
          "order": "ASCENDING"
        }
      ]
    },
    {
      "collectionGroup": "sedes",
      "queryScope": "COLLECTION",
      "fields": [
        {
          "fieldPath": "instancias",
          "arrayConfig": "CONTAINS"
        },
        {
          "fieldPath": "nombre",
          "order": "ASCENDING"
        }
      ]
    },
    {
      "collectionGroup": "sedes",
      "queryScope": "COLLECTION",
      "fields": [
        {
          "fieldPath": "empresaId",
          "order": "ASCENDING"
        },
        {
          "fieldPath": "nombre",
          "order": "ASCENDING"
        }
      ]
    },
    {
      "collectionGroup": "sedeTipos",
      "queryScope": "COLLECTION",
      "fields": [
        {
          "fieldPath": "instancias",
          "arrayConfig": "CONTAINS"
        },
        {
          "fieldPath": "tipo",
          "order": "ASCENDING"
        }
      ]
    },
    {
      "collectionGroup": "users",
      "queryScope": "COLLECTION",
      "fields": [
        {
          "fieldPath": "instancias",
          "arrayConfig": "CONTAINS"
        },
        {
          "fieldPath": "displayName",
          "order": "ASCENDING"
        }
      ]
    }
  ],
  "fieldOverrides": []
}
